Introduction to the Tidyverse: Data wrangling
…
# Import data with readr

```r
# Import data from github
jobsGender <- read_csv("https://raw.githubusercontent.com/rfordatascience/tidytuesday/master/data/2019/2019-03-05/jobs_gender.csv")

# Print data
jobsGender
```

```
## # A tibble: 2,088 x 12
##     year occupation major_category minor_category total_workers
##    <dbl> <chr>      <chr>          <chr>                  <dbl>
##  1  2013 Chief exe… Management, B… Management           1024259
##  2  2013 General a… Management, B… Management            977284
##  3  2013 Legislato… Management, B… Management             14815
##  4  2013 Advertisi… Management, B… Management             43015
##  5  2013 Marketing… Management, B… Management            754514
##  6  2013 Public re… Management, B… Management             44198
##  7  2013 Administr… Management, B… Management            109703
##  8  2013 Computer … Management, B… Management            489048
##  9  2013 Financial… Management, B… Management            990611
## 10  2013 Compensat… Management, B… Management             14656
*## # … with 2,078 more rows, and 7 more variables: workers_male <dbl>,
*## #   workers_female <dbl>, percent_female <dbl>, total_earnings <dbl>,
…
